{
    "count": 1510,
    "perPage": 10,
    "currentPage": 1,
    "totalPages": 151,
    "results": [
        {
            "_id": "628aa531cfe289001693fbea",
            "firstName": "DEMO01",
            "lastName": "DEMO01",
            "email": "DEMO01@gmail.com",
            "phone": "6999659391",
            "createdAt": "2022-05-22T21:03:45.343Z",
            "updatedAt": "2023-02-13T22:21:09.796Z",
            "__v": 0,
            "id": "628aa531cfe289001693fbea"
        },
        {
            "_id": "628aa531cfe289001693fbee",
            "firstName": "DEMO02",
            "lastName": "DEMO02",
            "email": "DEMO02@gmail.com",
            "phone": "7249817900",
            "createdAt": "2022-05-22T21:03:45.350Z",
            "updatedAt": "2023-02-13T22:24:03.964Z",
            "__v": 0,
            "id": "628aa531cfe289001693fbee"
        }
    ]
}